Abnormals-Core-1.15.2-1.0.6.jar
AI-Improvements-1.15.2-0.3.0.jar
AkashicTome-1.3-13.jar
AmbientSounds_v3.0.20_mc1.15.2.jar
AppleSkin-mc1.15.2-forge-1.0.14.jar
appliedenergistics2-7.0.4.jar
Aquaculture-1.15.2-2.0.20.jar
astralsorcery-1.15.2-1.12.9.jar
Atmospheric-1.15.2-1.4.1.jar
AttributeFix-1.15.2-7.0.2.jar
AutoRegLib-1.5-40.jar
Bamboo-Blocks-1.15.2-1.4.1.jar
BiomesOPlenty-1.15.2-10.0.0.366-universal.jar
Bloomful-1.15.2-1.4.1.jar
Bookshelf-1.15.2-5.6.40.jar
Botania-r1.15-388.jar
BotanyPots-1.15.2-2.0.27.jar
Bountiful-1.15.2-3.1.2.jar
Buzzier-Bees-1.15.2-1.5.2.jar
cc-tweaked-1.15.2-1.93.0.jar
charginggadgets-1.0.0.jar
citadel-1.1.11.jar
Clumps-5.0.2.6.jar
CodeChickenLib-1.15.2-3.3.1.379-universal.jar
cofh_core-1.15.2-0.7.0b.jar
CommonCapabilities-1.15.2-2.5.4.jar
Controlling-6.1.5.6.jar
CookingForBlockheads_1.15.2-8.0.3.jar
CosmeticArmorReworked-1.15.2-v3a.jar
CraftTweaker-1.15.2-6.0.0.24.jar
create-mc1.15.2_v0.2.4e.jar
CTM-MC1.15.2-1.1.1.13.jar
curios-FORGE-1.15.2-2.0.2.6.jar
Cyclic-1.15.2-0.7.0.jar
CyclopsCore-1.15.2-1.8.4.jar
dankstorage-2.6.jar
DarkUtilities-1.15.2-3.1.8.jar
Druidcraft-1.15-0.4.31.jar
elevatorid-1.15.2-1.7.1.jar
EnderStorage-1.15.2-2.5.0.151-universal.jar
EnigmaticLegacy-1.7.2.jar
extraboats-1.3.6-1.15.2.jar
fairylights-3.0.11-1.15.2.jar
FastFurnace-1.15.1-3.0.0.jar
FastLeafDecay-v22.1.jar
FastWorkbench-1.15.2-3.1.1.jar
FluxNetworks-1.15.2-5.0.3-4.jar
forbidden_arcanus-1.15.2-1.5.jar
furniture-7.0.0-pre16-1.15.1.jar
Hwyla-forge-1.10.8-B72_1.15.2.jar
iceandfire-2.0.2-1.15.2.jar
ImmersiveEngineering-1.15.2-4.0.1-119.jar
industrial-foregoing-1.15.2-2.3.3-e356e61.jar
IntegratedDynamics-1.15.2-1.1.17.jar
InventoryHud_1.15.2.forge-3.1.2.jar
item-filters-2.2.0.15.jar
JAOPCA-1.15.2-3.2.0.15.jar
jei-1.15.2-6.0.3.15.jar
JEIEnchantmentInfo-1.16.1-1.2.0.jar
jeiintegration_1.15.2-3.1.1.2.jar
JEITweaker-1.15.2-1.0.1.3.jar
journeymap-1.15.2-5.7.0b3.jar
JustEnoughResources-1.15.2-0.10.1.77.jar
Kottle-1.5.2.jar
managear-1.15.2-1.2.0.jar
mcjtylib-1.15-4.1.10.jar
mcw-bridges-1.0.4fix-mc1.15.2.jar
mcw-doors-1.0.1fix-mc1.15.1-2.jar
mcw-furniture-1.0.1-mc1.15.1+1.15.2.jar
mcws-roofs-1.15.2-v2.0.0.jar
mcws-win-1.15.2-v1.0.2.jar
Mekanism-1.15.2-9.10.9.422.jar
MekanismAdditions-1.15.2-9.10.9.422.jar
MekanismGenerators-1.15.2-9.10.9.422.jar
MekanismTools-1.15.2-9.10.9.422.jar
Mine+and+Slash-1.15.2-3.7.3.jar
minecolonies-0.13.81-RELEASE-universal.jar
mininggadgets-1.3.5.jar
MouseTweaks-2.13-mc1.15.1.jar
NaturesAura-28.5.jar
NaturesCompass-1.15.2-1.8.5.jar
Neat+1.6-22.jar
observerlib-1.15.2-1.2.0.v60.jar
OreExcavation-1.7.151.jar
pamhc2crops-1.15.2-1.0.5.jar
pamhc2foodcore-1.15.2-1.1.0.jar
pamhc2trees-1.15.2-1.0.7.jar
Patchouli-1.15.2-1.2-35.jar
Placebo-1.15.2-3.1.0.jar
Psi+r1.2-84.jar
Quark-r2.1-245.jar
ReAuth-1.14-1.15-3.8.1.jar
refinedstorage-1.8.8.jar
rftoolsbase-1.15-1.1.7.jar
rftoolsbuilder-1.15-2.1.11.jar
rftoolscontrol-1.15-3.0.8.jar
rftoolspower-1.15-2.2.5.jar
rftoolsstorage-1.15-1.1.10.jar
rftoolsutility-1.15-2.1.10.jar
scenic-1.15.2-1.0.2.jar
SilentGear-1.15.2-1.11.3+160.jar
SilentGems-1.15.2-3.6.2+98.jar
SilentLib-1.15.2-4.6.6+59.jar
SimplyJetpacks2-1.15.2-2.5.3.4.jar
snowundertrees-1.15.2-v1.1.1.jar
SoulShardsRespawn-forge-1.15.2-1.2.0-15.jar
StorageDrawers-1.15.2-7.0.2.jar
structurize-0.13.31-RELEASE.jar
Swamp-Expansion-1.15.2-1.7.3.jar
swingthroughgrass-1.15.2-1.4.0.jar
TerraForged-1.15.2-0.1.2.jar
thermal-1.15.2-0.3.0b.jar
thermal_cultivation-1.15.2-0.3.0b.jar
thermal_expansion-1.15.2-0.3.0b.jar
thermal_innovation-1.15.2-0.3.0b.jar
titanium-1.15.2-2.4.2.jar
ToastControl-1.15.2-3.0.1.jar
tombstone-4.5.6.jar
torchslabmod-1.15.2_v1.7.0.jar
toughnessbar-5.0.jar
trash-1.15.2-0.2.0.jar
TrashSlot_1.15.2-11.0.0.jar
Tropicraft-8.1.0-beta+34.jar
ultimate_unicorn_mod-1.15.2-1.5.16.jar
Upgrade-Aquatic-1.15.2-1.7.1.jar
useful_backpacks-1.15.2-1.10.3.77.jar
u_team_core-1.15.2-3.0.2.169.jar
valhelsia_structures-15.0.3a.jar
Vampirism-1.15.2-1.6.1.jar
WailaHarvestability-mc1.15.2-1.1.12.jar
WAWLA-1.15.2-3.0.4.jar
Waystones_1.15.2-6.0.2.jar
xnet-1.15-2.1.11.jar
XNetGases-1.15.2-1.0.0.jar
